<?xml version="1.0" encoding="UTF-8" standalone="no"?>
<!-- Created with Inkscape (http://www.inkscape.org/) -->

<svg
   width="210mm"
   height="297mm"
   viewBox="0 0 210 297"
   version="1.1"
   id="svg2141"
   inkscape:version="1.1.2 (b8e25be833, 2022-02-05)"
   sodipodi:docname="rock---workflow---01.svg"
   inkscape:export-filename="C:\pC\Data\books\rockbook\img\tutorial\rock---workflow---01.png"
   inkscape:export-xdpi="239.06"
   inkscape:export-ydpi="239.06"
   xmlns:inkscape="http://www.inkscape.org/namespaces/inkscape"
   xmlns:sodipodi="http://sodipodi.sourceforge.net/DTD/sodipodi-0.dtd"
   xmlns:xlink="http://www.w3.org/1999/xlink"
   xmlns="http://www.w3.org/2000/svg"
   xmlns:svg="http://www.w3.org/2000/svg">
  <sodipodi:namedview
     id="namedview2143"
     pagecolor="#ffffff"
     bordercolor="#666666"
     borderopacity="1.0"
     inkscape:pageshadow="2"
     inkscape:pageopacity="0.0"
     inkscape:pagecheckerboard="0"
     inkscape:document-units="mm"
     showgrid="false"
     inkscape:snap-bbox="true"
     inkscape:bbox-paths="true"
     inkscape:bbox-nodes="true"
     inkscape:snap-bbox-edge-midpoints="true"
     inkscape:snap-bbox-midpoints="true"
     inkscape:zoom="1.5"
     inkscape:cx="407"
     inkscape:cy="271.66667"
     inkscape:window-width="1920"
     inkscape:window-height="1134"
     inkscape:window-x="-8"
     inkscape:window-y="-8"
     inkscape:window-maximized="1"
     inkscape:current-layer="layer3"
     inkscape:object-paths="true"
     inkscape:snap-intersection-paths="true"
     inkscape:snap-smooth-nodes="true"
     inkscape:snap-midpoints="true"
     inkscape:snap-object-midpoints="true"
     inkscape:snap-center="true"
     inkscape:snap-text-baseline="true"
     inkscape:snap-global="false"
     inkscape:snap-page="true" />
  <defs
     id="defs2138">
    <linearGradient
       id="linearGradient49191"
       inkscape:swatch="solid">
      <stop
         style="stop-color:#ffffff;stop-opacity:1;"
         offset="0"
         id="stop49189" />
    </linearGradient>
    <marker
       style="overflow:visible;"
       id="Arrow2Send"
       refX="0.0"
       refY="0.0"
       orient="auto"
       inkscape:stockid="Arrow2Send"
       inkscape:isstock="true">
      <path
         transform="scale(0.3) rotate(180) translate(-2.3,0)"
         d="M 8.7185878,4.0337352 L -2.2072895,0.016013256 L 8.7185884,-4.0017078 C 6.9730900,-1.6296469 6.9831476,1.6157441 8.7185878,4.0337352 z "
         style="stroke:context-stroke;fill-rule:evenodd;fill:context-stroke;stroke-width:0.62500000;stroke-linejoin:round;"
         id="path45573" />
    </marker>
    <marker
       style="overflow:visible"
       id="TriangleOutM"
       refX="0.0"
       refY="0.0"
       orient="auto"
       inkscape:stockid="TriangleOutM"
       inkscape:isstock="true">
      <path
         transform="scale(0.4)"
         style="fill-rule:evenodd;fill:context-stroke;stroke:context-stroke;stroke-width:1.0pt"
         d="M 5.77,0.0 L -2.88,5.0 L -2.88,-5.0 L 5.77,0.0 z "
         id="path45685" />
    </marker>
    <marker
       style="overflow:visible"
       id="Tail"
       refX="0.0"
       refY="0.0"
       orient="auto"
       inkscape:stockid="Tail"
       inkscape:isstock="true">
      <g
         transform="scale(-1.2)"
         id="g45588">
        <path
           style="fill:none;fill-rule:evenodd;stroke:context-stroke;stroke-width:0.8;stroke-linecap:round"
           d="M -3.8048674,-3.9585227 L 0.54352094,0"
           id="path45576" />
        <path
           style="fill:none;fill-rule:evenodd;stroke:context-stroke;stroke-width:0.8;stroke-linecap:round"
           d="M -1.2866832,-3.9585227 L 3.0617053,0"
           id="path45578" />
        <path
           style="fill:none;fill-rule:evenodd;stroke:context-stroke;stroke-width:0.8;stroke-linecap:round"
           d="M 1.3053582,-3.9585227 L 5.6537466,0"
           id="path45580" />
        <path
           style="fill:none;fill-rule:evenodd;stroke:context-stroke;stroke-width:0.8;stroke-linecap:round"
           d="M -3.8048674,4.1775838 L 0.54352094,0.21974226"
           id="path45582" />
        <path
           style="fill:none;fill-rule:evenodd;stroke:context-stroke;stroke-width:0.8;stroke-linecap:round"
           d="M -1.2866832,4.1775838 L 3.0617053,0.21974226"
           id="path45584" />
        <path
           style="fill:none;fill-rule:evenodd;stroke:context-stroke;stroke-width:0.8;stroke-linecap:round"
           d="M 1.3053582,4.1775838 L 5.6537466,0.21974226"
           id="path45586" />
      </g>
    </marker>
    <marker
       style="overflow:visible;"
       id="marker45856"
       refX="0.0"
       refY="0.0"
       orient="auto"
       inkscape:stockid="Arrow2Mend"
       inkscape:isstock="true">
      <path
         transform="scale(0.6) rotate(180) translate(0,0)"
         d="M 8.7185878,4.0337352 L -2.2072895,0.016013256 L 8.7185884,-4.0017078 C 6.9730900,-1.6296469 6.9831476,1.6157441 8.7185878,4.0337352 z "
         style="stroke:context-stroke;fill-rule:evenodd;fill:context-stroke;stroke-width:0.62500000;stroke-linejoin:round;"
         id="path45854" />
    </marker>
    <marker
       style="overflow:visible;"
       id="marker45846"
       refX="0.0"
       refY="0.0"
       orient="auto"
       inkscape:stockid="Arrow1Send"
       inkscape:isstock="true">
      <path
         transform="scale(0.2) rotate(180) translate(6,0)"
         style="fill-rule:evenodd;fill:context-stroke;stroke:context-stroke;stroke-width:1.0pt;"
         d="M 0.0,0.0 L 5.0,-5.0 L -12.5,0.0 L 5.0,5.0 L 0.0,0.0 z "
         id="path45844" />
    </marker>
    <marker
       style="overflow:visible;"
       id="marker45836"
       refX="0.0"
       refY="0.0"
       orient="auto"
       inkscape:stockid="Arrow1Send"
       inkscape:isstock="true">
      <path
         transform="scale(0.2) rotate(180) translate(6,0)"
         style="fill-rule:evenodd;fill:context-stroke;stroke:context-stroke;stroke-width:1.0pt;"
         d="M 0.0,0.0 L 5.0,-5.0 L -12.5,0.0 L 5.0,5.0 L 0.0,0.0 z "
         id="path45834" />
    </marker>
    <marker
       style="overflow:visible;"
       id="Arrow1Mend"
       refX="0.0"
       refY="0.0"
       orient="auto"
       inkscape:stockid="Arrow1Mend"
       inkscape:isstock="true">
      <path
         transform="scale(0.4) rotate(180) translate(10,0)"
         style="fill-rule:evenodd;fill:context-stroke;stroke:context-stroke;stroke-width:1.0pt;"
         d="M 0.0,0.0 L 5.0,-5.0 L -12.5,0.0 L 5.0,5.0 L 0.0,0.0 z "
         id="path45549" />
    </marker>
    <marker
       style="overflow:visible;"
       id="marker45818"
       refX="0.0"
       refY="0.0"
       orient="auto"
       inkscape:stockid="Arrow1Send"
       inkscape:isstock="true">
      <path
         transform="scale(0.2) rotate(180) translate(6,0)"
         style="fill-rule:evenodd;fill:context-stroke;stroke:context-stroke;stroke-width:1.0pt;"
         d="M 0.0,0.0 L 5.0,-5.0 L -12.5,0.0 L 5.0,5.0 L 0.0,0.0 z "
         id="path45816" />
    </marker>
    <marker
       style="overflow:visible;"
       id="Arrow1Send"
       refX="0.0"
       refY="0.0"
       orient="auto"
       inkscape:stockid="Arrow1Send"
       inkscape:isstock="true">
      <path
         transform="scale(0.2) rotate(180) translate(6,0)"
         style="fill-rule:evenodd;fill:context-stroke;stroke:context-stroke;stroke-width:1.0pt;"
         d="M 0.0,0.0 L 5.0,-5.0 L -12.5,0.0 L 5.0,5.0 L 0.0,0.0 z "
         id="path45555" />
    </marker>
    <marker
       style="overflow:visible;"
       id="Arrow2Mend"
       refX="0.0"
       refY="0.0"
       orient="auto"
       inkscape:stockid="Arrow2Mend"
       inkscape:isstock="true">
      <path
         transform="scale(0.6) rotate(180) translate(0,0)"
         d="M 8.7185878,4.0337352 L -2.2072895,0.016013256 L 8.7185884,-4.0017078 C 6.9730900,-1.6296469 6.9831476,1.6157441 8.7185878,4.0337352 z "
         style="stroke:context-stroke;fill-rule:evenodd;fill:context-stroke;stroke-width:0.62500000;stroke-linejoin:round;"
         id="path45567" />
    </marker>
    <linearGradient
       id="linearGradient45536"
       inkscape:swatch="solid">
      <stop
         style="stop-color:#000000;stop-opacity:1;"
         offset="0"
         id="stop45534" />
    </linearGradient>
    <linearGradient
       id="Line_numbers"
       inkscape:swatch="solid">
      <stop
         style="stop-color:#cccccc;stop-opacity:1;"
         offset="0"
         id="stop17821" />
    </linearGradient>
    <linearGradient
       id="Source_mask"
       inkscape:swatch="solid">
      <stop
         style="stop-color:#ffffff;stop-opacity:0.80000001;"
         offset="0"
         id="stop16316" />
    </linearGradient>
    <linearGradient
       id="Source_ROCK">
      <stop
         style="stop-color:#cccccc;stop-opacity:1;"
         offset="0"
         id="stop9762" />
    </linearGradient>
    <linearGradient
       id="linearGradient9105">
      <stop
         style="stop-color:#800000;stop-opacity:1;"
         offset="0"
         id="stop9103" />
    </linearGradient>
    <linearGradient
       id="Legend"
       inkscape:swatch="solid">
      <stop
         style="stop-color:#800000;stop-opacity:1;"
         offset="0"
         id="stop6377" />
    </linearGradient>
    <linearGradient
       id="Source_data"
       inkscape:swatch="solid">
      <stop
         style="stop-color:#000000;stop-opacity:1;"
         offset="0"
         id="stop4955" />
    </linearGradient>
    <linearGradient
       inkscape:collect="always"
       xlink:href="#Source_ROCK"
       id="linearGradient9766"
       x1="34.655706"
       y1="67.819236"
       x2="170.15238"
       y2="67.819236"
       gradientUnits="userSpaceOnUse" />
    <clipPath
       id="clip0">
      <rect
         x="95"
         y="122"
         width="335"
         height="212"
         id="rect2856" />
    </clipPath>
    <clipPath
       id="clip1">
      <rect
         x="95"
         y="122"
         width="124"
         height="212"
         id="rect2859" />
    </clipPath>
    <clipPath
       id="clip2">
      <rect
         x="95"
         y="122"
         width="124"
         height="212"
         id="rect2862" />
    </clipPath>
    <clipPath
       id="clip3">
      <rect
         x="95"
         y="122"
         width="227"
         height="212"
         id="rect2865" />
    </clipPath>
    <clipPath
       id="clip4">
      <rect
         x="219"
         y="122"
         width="105"
         height="212"
         id="rect2868" />
    </clipPath>
    <clipPath
       id="clip5">
      <rect
         x="219"
         y="122"
         width="105"
         height="212"
         id="rect2871" />
    </clipPath>
    <clipPath
       id="clip6">
      <rect
         x="134"
         y="122"
         width="226"
         height="212"
         id="rect2874" />
    </clipPath>
    <clipPath
       id="clip7">
      <rect
         x="324"
         y="122"
         width="106"
         height="212"
         id="rect2877" />
    </clipPath>
    <clipPath
       id="clip8">
      <rect
         x="324"
         y="122"
         width="106"
         height="212"
         id="rect2880" />
    </clipPath>
    <clipPath
       id="clip9">
      <rect
         x="203"
         y="122"
         width="227"
         height="212"
         id="rect2883" />
    </clipPath>
    <clipPath
       id="clip10">
      <rect
         x="219"
         y="122"
         width="105"
         height="212"
         id="rect2886" />
    </clipPath>
    <clipPath
       id="clip11">
      <rect
         x="219"
         y="122"
         width="105"
         height="212"
         id="rect2889" />
    </clipPath>
    <clipPath
       id="clip12">
      <rect
         x="134"
         y="122"
         width="226"
         height="212"
         id="rect2892" />
    </clipPath>
    <clipPath
       id="clip13">
      <rect
         x="219"
         y="122"
         width="105"
         height="212"
         id="rect2895" />
    </clipPath>
    <clipPath
       id="clip14">
      <rect
         x="219"
         y="122"
         width="105"
         height="212"
         id="rect2898" />
    </clipPath>
    <clipPath
       id="clip15">
      <rect
         x="134"
         y="122"
         width="226"
         height="212"
         id="rect2901" />
    </clipPath>
    <clipPath
       id="clip16">
      <rect
         x="219"
         y="122"
         width="105"
         height="212"
         id="rect2904" />
    </clipPath>
    <clipPath
       id="clip17">
      <rect
         x="219"
         y="122"
         width="105"
         height="212"
         id="rect2907" />
    </clipPath>
    <clipPath
       id="clip18">
      <rect
         x="134"
         y="122"
         width="226"
         height="212"
         id="rect2910" />
    </clipPath>
    <clipPath
       id="clip19">
      <rect
         x="219"
         y="122"
         width="105"
         height="212"
         id="rect2913" />
    </clipPath>
    <clipPath
       id="clip20">
      <rect
         x="219"
         y="122"
         width="105"
         height="212"
         id="rect2916" />
    </clipPath>
    <clipPath
       id="clip21">
      <rect
         x="134"
         y="122"
         width="226"
         height="212"
         id="rect2919" />
    </clipPath>
    <clipPath
       id="clip22">
      <rect
         x="219"
         y="122"
         width="105"
         height="212"
         id="rect2922" />
    </clipPath>
    <clipPath
       id="clip23">
      <rect
         x="219"
         y="122"
         width="105"
         height="212"
         id="rect2925" />
    </clipPath>
    <clipPath
       id="clip24">
      <rect
         x="134"
         y="122"
         width="226"
         height="212"
         id="rect2928" />
    </clipPath>
    <clipPath
       id="clip25">
      <rect
         x="219"
         y="122"
         width="105"
         height="212"
         id="rect2931" />
    </clipPath>
    <clipPath
       id="clip26">
      <rect
         x="219"
         y="122"
         width="105"
         height="212"
         id="rect2934" />
    </clipPath>
    <clipPath
       id="clip27">
      <rect
         x="134"
         y="122"
         width="226"
         height="212"
         id="rect2937" />
    </clipPath>
    <clipPath
       id="clip28">
      <rect
         x="219"
         y="122"
         width="105"
         height="212"
         id="rect2940" />
    </clipPath>
    <clipPath
       id="clip29">
      <rect
         x="219"
         y="122"
         width="105"
         height="212"
         id="rect2943" />
    </clipPath>
    <clipPath
       id="clip30">
      <rect
         x="134"
         y="122"
         width="226"
         height="212"
         id="rect2946" />
    </clipPath>
    <clipPath
       id="clip31">
      <rect
         x="219"
         y="122"
         width="105"
         height="212"
         id="rect2949" />
    </clipPath>
    <clipPath
       id="clip32">
      <rect
         x="219"
         y="122"
         width="105"
         height="212"
         id="rect2952" />
    </clipPath>
    <clipPath
       id="clip33">
      <rect
         x="134"
         y="122"
         width="226"
         height="212"
         id="rect2955" />
    </clipPath>
    <clipPath
       id="clip34">
      <rect
         x="219"
         y="122"
         width="105"
         height="212"
         id="rect2958" />
    </clipPath>
    <clipPath
       id="clip35">
      <rect
         x="219"
         y="122"
         width="105"
         height="212"
         id="rect2961" />
    </clipPath>
    <clipPath
       id="clip36">
      <rect
         x="134"
         y="122"
         width="226"
         height="212"
         id="rect2964" />
    </clipPath>
    <clipPath
       id="clip37">
      <rect
         x="219"
         y="122"
         width="105"
         height="212"
         id="rect2967" />
    </clipPath>
    <clipPath
       id="clip38">
      <rect
         x="219"
         y="122"
         width="105"
         height="212"
         id="rect2970" />
    </clipPath>
    <clipPath
       id="clip39">
      <rect
         x="134"
         y="122"
         width="226"
         height="212"
         id="rect2973" />
    </clipPath>
    <clipPath
       id="clip40">
      <rect
         x="219"
         y="122"
         width="105"
         height="212"
         id="rect2976" />
    </clipPath>
    <clipPath
       id="clip41">
      <rect
         x="219"
         y="122"
         width="105"
         height="212"
         id="rect2979" />
    </clipPath>
    <clipPath
       id="clip42">
      <rect
         x="134"
         y="122"
         width="226"
         height="212"
         id="rect2982" />
    </clipPath>
    <linearGradient
       inkscape:collect="always"
       xlink:href="#Legend"
       id="linearGradient9753"
       gradientUnits="userSpaceOnUse"
       gradientTransform="translate(-28.56406,26.034877)"
       x1="65.773888"
       y1="53.079971"
       x2="76.323471"
       y2="53.079971" />
    <linearGradient
       inkscape:collect="always"
       xlink:href="#Legend"
       id="linearGradient24651"
       gradientUnits="userSpaceOnUse"
       gradientTransform="translate(-28.56406,4.86821)"
       x1="65.773888"
       y1="53.079971"
       x2="76.323471"
       y2="53.079971" />
    <linearGradient
       inkscape:collect="always"
       xlink:href="#Legend"
       id="linearGradient24723"
       gradientUnits="userSpaceOnUse"
       gradientTransform="translate(-28.56406,26.034877)"
       x1="65.773888"
       y1="53.079971"
       x2="76.323471"
       y2="53.079971" />
    <linearGradient
       inkscape:collect="always"
       xlink:href="#Legend"
       id="linearGradient24729"
       gradientUnits="userSpaceOnUse"
       gradientTransform="translate(-57.787665,37.280195)"
       x1="70.718742"
       y1="37.24136"
       x2="125.18466"
       y2="37.24136" />
    <linearGradient
       inkscape:collect="always"
       xlink:href="#Legend"
       id="linearGradient26811"
       gradientUnits="userSpaceOnUse"
       gradientTransform="translate(-40.306172,58.446862)"
       x1="70.718742"
       y1="37.24136"
       x2="125.18466"
       y2="37.24136" />
    <linearGradient
       inkscape:collect="always"
       xlink:href="#Legend"
       id="linearGradient30847"
       gradientUnits="userSpaceOnUse"
       gradientTransform="translate(-23.286111,16.113528)"
       x1="70.718742"
       y1="37.24136"
       x2="125.18466"
       y2="37.24136" />
    <linearGradient
       inkscape:collect="always"
       xlink:href="#Legend"
       id="linearGradient32419"
       gradientUnits="userSpaceOnUse"
       gradientTransform="translate(-40.682938,37.280195)"
       x1="70.718742"
       y1="37.24136"
       x2="125.18466"
       y2="37.24136" />
    <linearGradient
       inkscape:collect="always"
       xlink:href="#Legend"
       id="linearGradient35642"
       gradientUnits="userSpaceOnUse"
       gradientTransform="translate(51.857623,14.085055)"
       x1="70.718742"
       y1="37.24136"
       x2="125.18466"
       y2="37.24136" />
    <linearGradient
       inkscape:collect="always"
       xlink:href="#Legend"
       id="linearGradient35644"
       gradientUnits="userSpaceOnUse"
       gradientTransform="translate(51.823756,24.668388)"
       x1="70.718742"
       y1="37.24136"
       x2="125.18466"
       y2="37.24136" />
    <linearGradient
       inkscape:collect="always"
       xlink:href="#Legend"
       id="linearGradient35646"
       gradientUnits="userSpaceOnUse"
       gradientTransform="translate(51.868206,35.251722)"
       x1="70.718742"
       y1="37.24136"
       x2="125.18466"
       y2="37.24136" />
    <linearGradient
       inkscape:collect="always"
       xlink:href="#Legend"
       id="linearGradient35648"
       gradientUnits="userSpaceOnUse"
       gradientTransform="translate(51.726742,45.835056)"
       x1="70.718742"
       y1="37.24136"
       x2="125.18466"
       y2="37.24136" />
    <linearGradient
       inkscape:collect="always"
       xlink:href="#Legend"
       id="linearGradient28117"
       gradientUnits="userSpaceOnUse"
       gradientTransform="matrix(0.82689674,0,0,0.82689674,75.953434,69.349337)"
       x1="70.718742"
       y1="37.24136"
       x2="125.18466"
       y2="37.24136" />
    <linearGradient
       inkscape:collect="always"
       xlink:href="#Legend"
       id="linearGradient28119"
       gradientUnits="userSpaceOnUse"
       gradientTransform="matrix(0.82689674,0,0,0.82689674,75.953434,69.349337)"
       x1="70.718742"
       y1="37.24136"
       x2="125.18466"
       y2="37.24136" />
    <linearGradient
       inkscape:collect="always"
       xlink:href="#Legend"
       id="linearGradient28121"
       gradientUnits="userSpaceOnUse"
       gradientTransform="matrix(0.82689674,0,0,0.82689674,75.953434,69.349337)"
       x1="70.718742"
       y1="37.24136"
       x2="125.18466"
       y2="37.24136" />
    <linearGradient
       inkscape:collect="always"
       xlink:href="#Legend"
       id="linearGradient28123"
       gradientUnits="userSpaceOnUse"
       gradientTransform="matrix(0.82689674,0,0,0.82689674,75.953434,69.349337)"
       x1="70.718742"
       y1="37.24136"
       x2="125.18466"
       y2="37.24136" />
  </defs>
  <g
     inkscape:groupmode="layer"
     id="layer2"
     inkscape:label="Paper"
     style="display:inline"
     sodipodi:insensitive="true">
    <rect
       style="color:#000000;overflow:visible;fill:#00ff00;fill-opacity:0.305177;stroke:none;stroke-width:15.5272;stroke-linecap:round;stroke-opacity:1;stop-color:#000000"
       id="rect18485"
       width="210"
       height="20"
       x="6.7449843e-15"
       y="0" />
    <rect
       style="color:#000000;overflow:visible;fill:#00ff00;fill-opacity:0.305177;stroke:none;stroke-width:17.177;stroke-linecap:round;stroke-opacity:1;stop-color:#000000"
       id="rect18681"
       width="20"
       height="257"
       x="6.7449843e-15"
       y="20" />
    <rect
       style="color:#000000;overflow:visible;fill:#00ff00;fill-opacity:0.305177;stroke:none;stroke-width:15.5272;stroke-linecap:round;stroke-opacity:1;stop-color:#000000"
       id="rect18683"
       width="210"
       height="20"
       x="0"
       y="277" />
    <rect
       style="color:#000000;overflow:visible;fill:#00ff00;fill-opacity:0.305177;stroke:none;stroke-width:17.177;stroke-linecap:round;stroke-opacity:1;stop-color:#000000"
       id="rect18685"
       width="20"
       height="257"
       x="190"
       y="20" />
    <text
       xml:space="preserve"
       style="font-size:7.05556px;line-height:7.90223px;font-family:'Faster One';-inkscape-font-specification:'Faster One';letter-spacing:0px;word-spacing:0px;fill:none;stroke:#000000;stroke-width:0.264583px;stroke-linecap:butt;stroke-linejoin:miter;stroke-opacity:1"
       x="4.9383059"
       y="10.395177"
       id="text19867"><tspan
         sodipodi:role="line"
         id="tspan19865"
         style="font-style:normal;font-variant:normal;font-weight:normal;font-stretch:normal;font-size:7.05556px;font-family:Nunito;-inkscape-font-specification:Nunito;fill:#000000;stroke:none;stroke-width:0.264583px"
         x="4.9383059"
         y="10.395177">A4 paper with 2 cm margins</tspan></text>
  </g>
  <g
     inkscape:groupmode="layer"
     id="layer3"
     inkscape:label="Figure background"
     style="display:none">
    <rect
       style="color:#000000;overflow:visible;fill:#ffffff;fill-opacity:1;stroke:none;stroke-width:5.51969;stroke-linecap:round;stroke-linejoin:bevel;stroke-miterlimit:4;stroke-dasharray:none;stroke-opacity:1;stop-color:#000000"
       id="rect48901"
       width="170"
       height="90.132263"
       x="20"
       y="20"
       inkscape:export-filename="C:\pC\git\books\rockbook\img\tutorial\rock---workflow---01.png"
       inkscape:export-xdpi="239.06"
       inkscape:export-ydpi="239.06" />
  </g>
  <g
     inkscape:groupmode="layer"
     id="layer4"
     inkscape:label="iROCK"
     style="display:inline" />
  <g
     inkscape:label="Annotation"
     inkscape:groupmode="layer"
     id="layer1"
     style="display:inline">
    <g
       id="g24573"
       transform="translate(0,-42.333335)">
      <g
         id="g9697"
         transform="matrix(0.29771361,0,0,0.29771361,24.336214,66.927738)">
        <g
           id="g9695">
          <path
             d="M 125.7651,4.001 H 24 C 24,1.792 22.209,0 20,0 H 4 C 1.791,0 0,1.792 0,4.001 V 8 v 6.001 2 c 0,2.209 1.791,4 4,4 h 121.7651 c 2.209,0 4,-1.791 4,-4 V 8 c 0,-2.209 -1.791,-3.999 -4,-3.999 z"
             style="clip-rule:evenodd;fill:#cca352;fill-rule:evenodd"
             id="path9693"
             sodipodi:nodetypes="scsssccssssss" />
        </g>
      </g>
      <g
         id="g9703"
         transform="matrix(0.29771361,0,0,0.29771361,24.336214,66.927738)">
        <g
           id="g9701">
          <path
             d="M 121.32075,8 H 8 C 5.791,8 4,9.791 4,12.001 v 4 c 0,2.209 1.791,4 4,4 h 113.32075 c 2.209,0 4,-1.791 4,-4 v -4 c 0,-2.21 -1.791,-4.001 -4,-4.001 z"
             style="fill:#ffffff"
             id="path9699"
             sodipodi:nodetypes="sssssssss" />
        </g>
      </g>
      <g
         id="g9709"
         transform="matrix(0.29771361,0,0,0.29771361,24.336214,66.927738)">
        <g
           id="g9707">
          <path
             d="M 125.7651,12.001 H 4 c -2.209,0 -4,1.791 -4,4 v 24.003083 c 0,2.209 1.791,4 4,4 h 121.7651 c 2.209,0 4,-1.791 4,-4 V 16.001 c 0,-2.209 -1.791,-4 -4,-4 z"
             style="fill:#ffcc66"
             id="path9705"
             sodipodi:nodetypes="sssssssss" />
        </g>
      </g>
      <g
         id="g9711"
         transform="matrix(0.29771361,0,0,0.29771361,24.336214,66.927738)" />
      <g
         id="g9713"
         transform="matrix(0.29771361,0,0,0.29771361,24.336214,66.927738)" />
      <g
         id="g9715"
         transform="matrix(0.29771361,0,0,0.29771361,24.336214,66.927738)" />
      <g
         id="g9717"
         transform="matrix(0.29771361,0,0,0.29771361,24.336214,66.927738)" />
      <g
         id="g9719"
         transform="matrix(0.29771361,0,0,0.29771361,24.336214,66.927738)" />
      <g
         id="g9721"
         transform="matrix(0.29771361,0,0,0.29771361,24.336214,66.927738)" />
      <g
         id="g9723"
         transform="matrix(0.29771361,0,0,0.29771361,24.336214,66.927738)" />
      <g
         id="g9725"
         transform="matrix(0.29771361,0,0,0.29771361,24.336214,66.927738)" />
      <g
         id="g9727"
         transform="matrix(0.29771361,0,0,0.29771361,24.336214,66.927738)" />
      <g
         id="g9729"
         transform="matrix(0.29771361,0,0,0.29771361,24.336214,66.927738)" />
      <g
         id="g9731"
         transform="matrix(0.29771361,0,0,0.29771361,24.336214,66.927738)" />
      <g
         id="g9733"
         transform="matrix(0.29771361,0,0,0.29771361,24.336214,66.927738)" />
      <g
         id="g9735"
         transform="matrix(0.29771361,0,0,0.29771361,24.336214,66.927738)" />
      <g
         id="g9737"
         transform="matrix(0.29771361,0,0,0.29771361,24.336214,66.927738)" />
      <g
         id="g9739"
         transform="matrix(0.29771361,0,0,0.29771361,24.336214,66.927738)" />
      <text
         xml:space="preserve"
         style="font-size:4.23333px;line-height:3.70417px;font-family:'Faster One';-inkscape-font-specification:'Faster One';text-align:center;letter-spacing:0px;word-spacing:0px;text-anchor:middle;fill:url(#linearGradient32419);fill-opacity:1;stroke:none;stroke-width:0.264583px;stroke-linecap:butt;stroke-linejoin:miter;stroke-opacity:1"
         x="31.420454"
         y="76.260056"
         id="text9745"><tspan
           sodipodi:role="line"
           style="font-style:normal;font-variant:normal;font-weight:normal;font-stretch:normal;font-size:4.23333px;font-family:Nunito;-inkscape-font-specification:Nunito;text-align:start;text-anchor:start;fill:url(#linearGradient32419);fill-opacity:1;stroke:none;stroke-width:0.264583px"
           x="31.420454"
           y="76.260056"
           id="tspan9743">Raw sources</tspan></text>
      <path
         style="fill:none;fill-rule:evenodd;stroke:url(#linearGradient9753);stroke-width:1;stroke-linecap:round;stroke-linejoin:bevel;stroke-miterlimit:4;stroke-dasharray:none;stroke-opacity:1;marker-end:url(#Arrow2Send)"
         d="m 43.647828,81.668022 v 3.964041"
         id="path9747"
         sodipodi:nodetypes="cc" />
    </g>
    <g
       id="g24639"
       transform="matrix(0.29771361,0,0,0.29771361,24.336214,45.761071)"
       style="display:inline">
      <g
         id="g24595">
        <g
           id="g24593">
          <path
             d="M 125.7651,4.001 H 24 C 24,1.792 22.209,0 20,0 H 4 C 1.791,0 0,1.792 0,4.001 V 8 v 6.001 2 c 0,2.209 1.791,4 4,4 h 121.7651 c 2.209,0 4,-1.791 4,-4 V 8 c 0,-2.209 -1.791,-3.999 -4,-3.999 z"
             style="clip-rule:evenodd;fill:#cca352;fill-rule:evenodd"
             id="path24591"
             sodipodi:nodetypes="scsssccssssss" />
        </g>
      </g>
      <g
         id="g24601">
        <g
           id="g24599">
          <path
             d="M 121.32075,8 H 8 C 5.791,8 4,9.791 4,12.001 v 4 c 0,2.209 1.791,4 4,4 h 113.32075 c 2.209,0 4,-1.791 4,-4 v -4 c 0,-2.21 -1.791,-4.001 -4,-4.001 z"
             style="fill:#ffffff"
             id="path24597"
             sodipodi:nodetypes="sssssssss" />
        </g>
      </g>
      <g
         id="g24607">
        <g
           id="g24605">
          <path
             d="M 125.7651,12.001 H 4 c -2.209,0 -4,1.791 -4,4 v 24.003083 c 0,2.209 1.791,4 4,4 h 121.7651 c 2.209,0 4,-1.791 4,-4 V 16.001 c 0,-2.209 -1.791,-4 -4,-4 z"
             style="fill:#ffcc66"
             id="path24603"
             sodipodi:nodetypes="sssssssss" />
        </g>
      </g>
      <g
         id="g24609" />
      <g
         id="g24611" />
      <g
         id="g24613" />
      <g
         id="g24615" />
      <g
         id="g24617" />
      <g
         id="g24619" />
      <g
         id="g24621" />
      <g
         id="g24623" />
      <g
         id="g24625" />
      <g
         id="g24627" />
      <g
         id="g24629" />
      <g
         id="g24631" />
      <g
         id="g24633" />
      <g
         id="g24635" />
      <g
         id="g24637" />
    </g>
    <text
       xml:space="preserve"
       style="font-size:4.23333px;line-height:3.70417px;font-family:'Faster One';-inkscape-font-specification:'Faster One';text-align:center;letter-spacing:0px;word-spacing:0px;text-anchor:middle;fill:url(#linearGradient30847);fill-opacity:1;stroke:none;stroke-width:0.264583px;stroke-linecap:butt;stroke-linejoin:miter;stroke-opacity:1"
       x="28.118467"
       y="55.093388"
       id="text24643"><tspan
         sodipodi:role="line"
         style="font-style:normal;font-variant:normal;font-weight:normal;font-stretch:normal;font-size:4.23333px;font-family:Nunito;-inkscape-font-specification:Nunito;text-align:start;text-anchor:start;fill:url(#linearGradient30847);fill-opacity:1;stroke:none;stroke-width:0.264583px"
         x="28.118467"
         y="55.093388"
         id="tspan24641">Cleaned sources</tspan></text>
    <path
       style="fill:none;fill-rule:evenodd;stroke:url(#linearGradient24651);stroke-width:1;stroke-linecap:round;stroke-linejoin:bevel;stroke-miterlimit:4;stroke-dasharray:none;stroke-opacity:1;marker-end:url(#Arrow2Send)"
       d="m 43.647828,60.501355 v 3.964041"
       id="path24645"
       sodipodi:nodetypes="cc" />
    <g
       id="g24719">
      <g
         id="g24711"
         transform="matrix(0.29771361,0,0,0.29771361,24.336214,66.927738)"
         style="display:inline">
        <g
           id="g24667">
          <g
             id="g24665">
            <path
               d="M 125.7651,4.001 H 24 C 24,1.792 22.209,0 20,0 H 4 C 1.791,0 0,1.792 0,4.001 V 8 v 6.001 2 c 0,2.209 1.791,4 4,4 h 121.7651 c 2.209,0 4,-1.791 4,-4 V 8 c 0,-2.209 -1.791,-3.999 -4,-3.999 z"
               style="clip-rule:evenodd;fill:#cca352;fill-rule:evenodd"
               id="path24663"
               sodipodi:nodetypes="scsssccssssss" />
          </g>
        </g>
        <g
           id="g24673">
          <g
             id="g24671">
            <path
               d="M 121.32075,8 H 8 C 5.791,8 4,9.791 4,12.001 v 4 c 0,2.209 1.791,4 4,4 h 113.32075 c 2.209,0 4,-1.791 4,-4 v -4 c 0,-2.21 -1.791,-4.001 -4,-4.001 z"
               style="fill:#ffffff"
               id="path24669"
               sodipodi:nodetypes="sssssssss" />
          </g>
        </g>
        <g
           id="g24679">
          <g
             id="g24677">
            <path
               d="M 125.7651,12.001 H 4 c -2.209,0 -4,1.791 -4,4 v 24.003083 c 0,2.209 1.791,4 4,4 h 121.7651 c 2.209,0 4,-1.791 4,-4 V 16.001 c 0,-2.209 -1.791,-4 -4,-4 z"
               style="fill:#ffcc66"
               id="path24675"
               sodipodi:nodetypes="sssssssss" />
          </g>
        </g>
        <g
           id="g24681" />
        <g
           id="g24683" />
        <g
           id="g24685" />
        <g
           id="g24687" />
        <g
           id="g24689" />
        <g
           id="g24691" />
        <g
           id="g24693" />
        <g
           id="g24695" />
        <g
           id="g24697" />
        <g
           id="g24699" />
        <g
           id="g24701" />
        <g
           id="g24703" />
        <g
           id="g24705" />
        <g
           id="g24707" />
        <g
           id="g24709" />
      </g>
      <text
         xml:space="preserve"
         style="font-size:4.23333px;line-height:3.70417px;font-family:'Faster One';-inkscape-font-specification:'Faster One';text-align:center;letter-spacing:0px;word-spacing:0px;text-anchor:middle;fill:url(#linearGradient24729);fill-opacity:1;stroke:none;stroke-width:0.264583px;stroke-linecap:butt;stroke-linejoin:miter;stroke-opacity:1"
         x="26.179605"
         y="76.260056"
         id="text24715"><tspan
           sodipodi:role="line"
           style="font-style:normal;font-variant:normal;font-weight:normal;font-stretch:normal;font-size:4.23333px;font-family:Nunito;-inkscape-font-specification:Nunito;text-align:start;text-anchor:start;fill:url(#linearGradient24729);fill-opacity:1;stroke:none;stroke-width:0.264583px"
           x="26.179605"
           y="76.260056"
           id="tspan24713">Sources with UIDs</tspan></text>
      <path
         style="fill:none;fill-rule:evenodd;stroke:url(#linearGradient24723);stroke-width:1;stroke-linecap:round;stroke-linejoin:bevel;stroke-miterlimit:4;stroke-dasharray:none;stroke-opacity:1;marker-end:url(#Arrow2Send)"
         d="m 43.647828,81.668022 v 3.964041"
         id="path24717"
         sodipodi:nodetypes="cc" />
    </g>
    <g
       id="g24779"
       transform="matrix(0.29771361,0,0,0.29771361,24.336214,88.094405)"
       style="display:inline">
      <g
         id="g24735">
        <g
           id="g24733">
          <path
             d="M 125.7651,4.001 H 24 C 24,1.792 22.209,0 20,0 H 4 C 1.791,0 0,1.792 0,4.001 V 8 v 6.001 2 c 0,2.209 1.791,4 4,4 h 121.7651 c 2.209,0 4,-1.791 4,-4 V 8 c 0,-2.209 -1.791,-3.999 -4,-3.999 z"
             style="clip-rule:evenodd;fill:#cca352;fill-rule:evenodd"
             id="path24731"
             sodipodi:nodetypes="scsssccssssss" />
        </g>
      </g>
      <g
         id="g24741">
        <g
           id="g24739">
          <path
             d="M 121.32075,8 H 8 C 5.791,8 4,9.791 4,12.001 v 4 c 0,2.209 1.791,4 4,4 h 113.32075 c 2.209,0 4,-1.791 4,-4 v -4 c 0,-2.21 -1.791,-4.001 -4,-4.001 z"
             style="fill:#ffffff"
             id="path24737"
             sodipodi:nodetypes="sssssssss" />
        </g>
      </g>
      <g
         id="g24747">
        <g
           id="g24745">
          <path
             d="M 125.7651,12.001 H 4 c -2.209,0 -4,1.791 -4,4 v 24.003083 c 0,2.209 1.791,4 4,4 h 121.7651 c 2.209,0 4,-1.791 4,-4 V 16.001 c 0,-2.209 -1.791,-4 -4,-4 z"
             style="fill:#ffcc66"
             id="path24743"
             sodipodi:nodetypes="sssssssss" />
        </g>
      </g>
      <g
         id="g24749" />
      <g
         id="g24751" />
      <g
         id="g24753" />
      <g
         id="g24755" />
      <g
         id="g24757" />
      <g
         id="g24759" />
      <g
         id="g24761" />
      <g
         id="g24763" />
      <g
         id="g24765" />
      <g
         id="g24767" />
      <g
         id="g24769" />
      <g
         id="g24771" />
      <g
         id="g24773" />
      <g
         id="g24775" />
      <g
         id="g24777" />
    </g>
    <text
       xml:space="preserve"
       style="font-size:4.23333px;line-height:3.70417px;font-family:'Faster One';-inkscape-font-specification:'Faster One';text-align:center;letter-spacing:0px;word-spacing:0px;text-anchor:middle;fill:url(#linearGradient26811);fill-opacity:1;stroke:none;stroke-width:0.264583px;stroke-linecap:butt;stroke-linejoin:miter;stroke-opacity:1"
       x="43.661098"
       y="97.42672"
       id="text24783"><tspan
         sodipodi:role="line"
         style="font-style:normal;font-variant:normal;font-weight:normal;font-stretch:normal;font-size:4.23333px;font-family:Nunito;-inkscape-font-specification:Nunito;text-align:center;text-anchor:middle;fill:url(#linearGradient26811);fill-opacity:1;stroke:none;stroke-width:0.264583px"
         x="43.661098"
         y="97.42672"
         id="tspan24781">Coded sources</tspan></text>
    <g
       id="g35552"
       transform="translate(6.3500008,-2.9104168)">
      <g
         id="g32735"
         transform="matrix(0.20551888,0,0,0.20551888,90.113878,46.113849)"
         style="display:inline">
        <g
           id="g32691">
          <g
             id="g32689">
            <path
               d="M 125.7651,4.001 H 24 C 24,1.792 22.209,0 20,0 H 4 C 1.791,0 0,1.792 0,4.001 V 8 v 6.001 2 c 0,2.209 1.791,4 4,4 h 121.7651 c 2.209,0 4,-1.791 4,-4 V 8 c 0,-2.209 -1.791,-3.999 -4,-3.999 z"
               style="clip-rule:evenodd;fill:#cca352;fill-rule:evenodd"
               id="path32687"
               sodipodi:nodetypes="scsssccssssss" />
          </g>
        </g>
        <g
           id="g32697">
          <g
             id="g32695">
            <path
               d="M 121.32075,8 H 8 C 5.791,8 4,9.791 4,12.001 v 4 c 0,2.209 1.791,4 4,4 h 113.32075 c 2.209,0 4,-1.791 4,-4 v -4 c 0,-2.21 -1.791,-4.001 -4,-4.001 z"
               style="fill:#ffffff"
               id="path32693"
               sodipodi:nodetypes="sssssssss" />
          </g>
        </g>
        <g
           id="g32703">
          <g
             id="g32701">
            <path
               d="M 125.7651,12.001 H 4 c -2.209,0 -4,1.791 -4,4 v 24.003083 c 0,2.209 1.791,4 4,4 h 121.7651 c 2.209,0 4,-1.791 4,-4 V 16.001 c 0,-2.209 -1.791,-4 -4,-4 z"
               style="fill:#ffcc66"
               id="path32699"
               sodipodi:nodetypes="sssssssss" />
          </g>
        </g>
        <g
           id="g32705" />
        <g
           id="g32707" />
        <g
           id="g32709" />
        <g
           id="g32711" />
        <g
           id="g32713" />
        <g
           id="g32715" />
        <g
           id="g32717" />
        <g
           id="g32719" />
        <g
           id="g32721" />
        <g
           id="g32723" />
        <g
           id="g32725" />
        <g
           id="g32727" />
        <g
           id="g32729" />
        <g
           id="g32731" />
        <g
           id="g32733" />
      </g>
      <text
         xml:space="preserve"
         style="font-size:4.23333px;line-height:3.70417px;font-family:'Faster One';-inkscape-font-specification:'Faster One';text-align:center;letter-spacing:0px;word-spacing:0px;text-anchor:middle;fill:url(#linearGradient35642);fill-opacity:1;stroke:none;stroke-width:0.264583px;stroke-linecap:butt;stroke-linejoin:miter;stroke-opacity:1"
         x="95.163864"
         y="53.064919"
         id="text32739"><tspan
           sodipodi:role="line"
           style="font-style:normal;font-variant:normal;font-weight:normal;font-stretch:normal;font-size:4.23333px;font-family:Nunito;-inkscape-font-specification:Nunito;text-align:start;text-anchor:start;fill:url(#linearGradient35642);fill-opacity:1;stroke:none;stroke-width:0.264583px"
           x="95.163864"
           y="53.064919"
           id="tspan32737">Source 1</tspan></text>
      <g
         id="g34090"
         transform="matrix(0.20551888,0,0,0.20551888,90.113878,56.697182)"
         style="display:inline">
        <g
           id="g34046">
          <g
             id="g34044">
            <path
               d="M 125.7651,4.001 H 24 C 24,1.792 22.209,0 20,0 H 4 C 1.791,0 0,1.792 0,4.001 V 8 v 6.001 2 c 0,2.209 1.791,4 4,4 h 121.7651 c 2.209,0 4,-1.791 4,-4 V 8 c 0,-2.209 -1.791,-3.999 -4,-3.999 z"
               style="clip-rule:evenodd;fill:#cca352;fill-rule:evenodd"
               id="path34042"
               sodipodi:nodetypes="scsssccssssss" />
          </g>
        </g>
        <g
           id="g34052">
          <g
             id="g34050">
            <path
               d="M 121.32075,8 H 8 C 5.791,8 4,9.791 4,12.001 v 4 c 0,2.209 1.791,4 4,4 h 113.32075 c 2.209,0 4,-1.791 4,-4 v -4 c 0,-2.21 -1.791,-4.001 -4,-4.001 z"
               style="fill:#ffffff"
               id="path34048"
               sodipodi:nodetypes="sssssssss" />
          </g>
        </g>
        <g
           id="g34058">
          <g
             id="g34056">
            <path
               d="M 125.7651,12.001 H 4 c -2.209,0 -4,1.791 -4,4 v 24.003083 c 0,2.209 1.791,4 4,4 h 121.7651 c 2.209,0 4,-1.791 4,-4 V 16.001 c 0,-2.209 -1.791,-4 -4,-4 z"
               style="fill:#ffcc66"
               id="path34054"
               sodipodi:nodetypes="sssssssss" />
          </g>
        </g>
        <g
           id="g34060" />
        <g
           id="g34062" />
        <g
           id="g34064" />
        <g
           id="g34066" />
        <g
           id="g34068" />
        <g
           id="g34070" />
        <g
           id="g34072" />
        <g
           id="g34074" />
        <g
           id="g34076" />
        <g
           id="g34078" />
        <g
           id="g34080" />
        <g
           id="g34082" />
        <g
           id="g34084" />
        <g
           id="g34086" />
        <g
           id="g34088" />
      </g>
      <text
         xml:space="preserve"
         style="font-size:4.23333px;line-height:3.70417px;font-family:'Faster One';-inkscape-font-specification:'Faster One';text-align:center;letter-spacing:0px;word-spacing:0px;text-anchor:middle;fill:url(#linearGradient35644);fill-opacity:1;stroke:none;stroke-width:0.264583px;stroke-linecap:butt;stroke-linejoin:miter;stroke-opacity:1"
         x="95.129997"
         y="63.648251"
         id="text34094"><tspan
           sodipodi:role="line"
           style="font-style:normal;font-variant:normal;font-weight:normal;font-stretch:normal;font-size:4.23333px;font-family:Nunito;-inkscape-font-specification:Nunito;text-align:start;text-anchor:start;fill:url(#linearGradient35644);fill-opacity:1;stroke:none;stroke-width:0.264583px"
           x="95.129997"
           y="63.648251"
           id="tspan34092">Source 2</tspan></text>
      <g
         id="g34154"
         transform="matrix(0.20551888,0,0,0.20551888,90.113878,67.280516)"
         style="display:inline">
        <g
           id="g34110">
          <g
             id="g34108">
            <path
               d="M 125.7651,4.001 H 24 C 24,1.792 22.209,0 20,0 H 4 C 1.791,0 0,1.792 0,4.001 V 8 v 6.001 2 c 0,2.209 1.791,4 4,4 h 121.7651 c 2.209,0 4,-1.791 4,-4 V 8 c 0,-2.209 -1.791,-3.999 -4,-3.999 z"
               style="clip-rule:evenodd;fill:#cca352;fill-rule:evenodd"
               id="path34106"
               sodipodi:nodetypes="scsssccssssss" />
          </g>
        </g>
        <g
           id="g34116">
          <g
             id="g34114">
            <path
               d="M 121.32075,8 H 8 C 5.791,8 4,9.791 4,12.001 v 4 c 0,2.209 1.791,4 4,4 h 113.32075 c 2.209,0 4,-1.791 4,-4 v -4 c 0,-2.21 -1.791,-4.001 -4,-4.001 z"
               style="fill:#ffffff"
               id="path34112"
               sodipodi:nodetypes="sssssssss" />
          </g>
        </g>
        <g
           id="g34122">
          <g
             id="g34120">
            <path
               d="M 125.7651,12.001 H 4 c -2.209,0 -4,1.791 -4,4 v 24.003083 c 0,2.209 1.791,4 4,4 h 121.7651 c 2.209,0 4,-1.791 4,-4 V 16.001 c 0,-2.209 -1.791,-4 -4,-4 z"
               style="fill:#ffcc66"
               id="path34118"
               sodipodi:nodetypes="sssssssss" />
          </g>
        </g>
        <g
           id="g34124" />
        <g
           id="g34126" />
        <g
           id="g34128" />
        <g
           id="g34130" />
        <g
           id="g34132" />
        <g
           id="g34134" />
        <g
           id="g34136" />
        <g
           id="g34138" />
        <g
           id="g34140" />
        <g
           id="g34142" />
        <g
           id="g34144" />
        <g
           id="g34146" />
        <g
           id="g34148" />
        <g
           id="g34150" />
        <g
           id="g34152" />
      </g>
      <text
         xml:space="preserve"
         style="font-size:4.23333px;line-height:3.70417px;font-family:'Faster One';-inkscape-font-specification:'Faster One';text-align:center;letter-spacing:0px;word-spacing:0px;text-anchor:middle;fill:url(#linearGradient35646);fill-opacity:1;stroke:none;stroke-width:0.264583px;stroke-linecap:butt;stroke-linejoin:miter;stroke-opacity:1"
         x="95.174446"
         y="74.231583"
         id="text34158"><tspan
           sodipodi:role="line"
           style="font-style:normal;font-variant:normal;font-weight:normal;font-stretch:normal;font-size:4.23333px;font-family:Nunito;-inkscape-font-specification:Nunito;text-align:start;text-anchor:start;fill:url(#linearGradient35646);fill-opacity:1;stroke:none;stroke-width:0.264583px"
           x="95.174446"
           y="74.231583"
           id="tspan34156">Source 3</tspan></text>
      <g
         id="g34214"
         transform="matrix(0.20551888,0,0,0.20551888,90.113878,77.86385)"
         style="display:inline">
        <g
           id="g34170">
          <g
             id="g34168">
            <path
               d="M 125.7651,4.001 H 24 C 24,1.792 22.209,0 20,0 H 4 C 1.791,0 0,1.792 0,4.001 V 8 v 6.001 2 c 0,2.209 1.791,4 4,4 h 121.7651 c 2.209,0 4,-1.791 4,-4 V 8 c 0,-2.209 -1.791,-3.999 -4,-3.999 z"
               style="clip-rule:evenodd;fill:#cca352;fill-rule:evenodd"
               id="path34166"
               sodipodi:nodetypes="scsssccssssss" />
          </g>
        </g>
        <g
           id="g34176">
          <g
             id="g34174">
            <path
               d="M 121.32075,8 H 8 C 5.791,8 4,9.791 4,12.001 v 4 c 0,2.209 1.791,4 4,4 h 113.32075 c 2.209,0 4,-1.791 4,-4 v -4 c 0,-2.21 -1.791,-4.001 -4,-4.001 z"
               style="fill:#ffffff"
               id="path34172"
               sodipodi:nodetypes="sssssssss" />
          </g>
        </g>
        <g
           id="g34182">
          <g
             id="g34180">
            <path
               d="M 125.7651,12.001 H 4 c -2.209,0 -4,1.791 -4,4 v 24.003083 c 0,2.209 1.791,4 4,4 h 121.7651 c 2.209,0 4,-1.791 4,-4 V 16.001 c 0,-2.209 -1.791,-4 -4,-4 z"
               style="fill:#ffcc66"
               id="path34178"
               sodipodi:nodetypes="sssssssss" />
          </g>
        </g>
        <g
           id="g34184" />
        <g
           id="g34186" />
        <g
           id="g34188" />
        <g
           id="g34190" />
        <g
           id="g34192" />
        <g
           id="g34194" />
        <g
           id="g34196" />
        <g
           id="g34198" />
        <g
           id="g34200" />
        <g
           id="g34202" />
        <g
           id="g34204" />
        <g
           id="g34206" />
        <g
           id="g34208" />
        <g
           id="g34210" />
        <g
           id="g34212" />
      </g>
      <text
         xml:space="preserve"
         style="font-size:4.23333px;line-height:3.70417px;font-family:'Faster One';-inkscape-font-specification:'Faster One';text-align:center;letter-spacing:0px;word-spacing:0px;text-anchor:middle;fill:url(#linearGradient35648);fill-opacity:1;stroke:none;stroke-width:0.264583px;stroke-linecap:butt;stroke-linejoin:miter;stroke-opacity:1"
         x="95.032982"
         y="84.814919"
         id="text34218"><tspan
           sodipodi:role="line"
           style="font-style:normal;font-variant:normal;font-weight:normal;font-stretch:normal;font-size:4.23333px;font-family:Nunito;-inkscape-font-specification:Nunito;text-align:start;text-anchor:start;fill:url(#linearGradient35648);fill-opacity:1;stroke:none;stroke-width:0.264583px"
           x="95.032982"
           y="84.814919"
           id="tspan34216"
           dx="0.088194445 0 0 0 0 0 -0.088194445">Source 4</tspan></text>
    </g>
    <path
       style="fill:none;fill-rule:evenodd;stroke:#800000;stroke-width:1;stroke-linecap:butt;stroke-linejoin:miter;stroke-miterlimit:4;stroke-dasharray:none;stroke-opacity:1"
       d="M 99.218753,40.304862 H 92.956947 V 63.588196"
       id="path1351"
       sodipodi:nodetypes="ccc" />
    <path
       style="fill:none;fill-rule:evenodd;stroke:#800000;stroke-width:1;stroke-linecap:butt;stroke-linejoin:miter;stroke-miterlimit:4;stroke-dasharray:none;stroke-opacity:1"
       d="M 99.218753,86.87153 H 92.956947 V 63.588196"
       id="path5948"
       sodipodi:nodetypes="ccc" />
    <path
       style="fill:none;fill-rule:evenodd;stroke:#800000;stroke-width:1;stroke-linecap:butt;stroke-linejoin:miter;stroke-miterlimit:4;stroke-dasharray:none;stroke-opacity:1"
       d="m 140.05286,23.528961 h -6.26181 v 42.480858"
       id="path6030"
       sodipodi:nodetypes="ccc" />
    <path
       style="fill:none;fill-rule:evenodd;stroke:#800000;stroke-width:1;stroke-linecap:butt;stroke-linejoin:miter;stroke-miterlimit:4;stroke-dasharray:none;stroke-opacity:1"
       d="m 140.05286,106.7557 h -6.26181 V 66.009819"
       id="path6032"
       sodipodi:nodetypes="ccc" />
    <path
       style="fill:none;fill-rule:evenodd;stroke:#800000;stroke-width:1;stroke-linecap:butt;stroke-linejoin:miter;stroke-miterlimit:4;stroke-dasharray:none;stroke-opacity:1"
       d="M 64.644744,96.431143 H 70.90655 L 92.956947,63.588196"
       id="path6034"
       sodipodi:nodetypes="ccc" />
    <path
       style="fill:none;fill-rule:evenodd;stroke:#800000;stroke-width:1;stroke-linecap:butt;stroke-linejoin:miter;stroke-miterlimit:4;stroke-dasharray:none;stroke-opacity:1"
       d="m 133.69393,59.541816 h -8.97336"
       id="path6363"
       sodipodi:nodetypes="cc" />
    <g
       id="g8413" />
    <g
       id="g27234"
       transform="translate(7.9375004,-70.379173)">
      <rect
         style="color:#000000;overflow:visible;fill:#fff6d5;stroke:#808080;stroke-width:0.740898;stroke-miterlimit:4;stroke-dasharray:none;stroke-dashoffset:0;stop-color:#000000"
         id="rect14023"
         width="31.110853"
         height="43.999638"
         x="130.49452"
         y="96.191437"
         rx="0.70427591"
         ry="0.70427591" />
      <path
         style="fill:none;fill-rule:evenodd;stroke:#333333;stroke-width:1.05641;stroke-linecap:butt;stroke-linejoin:miter;stroke-miterlimit:4;stroke-dasharray:none;stroke-opacity:1"
         d="M 132.77962,107.93539 H 158.3791"
         id="path14029"
         sodipodi:nodetypes="cc" />
      <path
         style="fill:none;fill-rule:evenodd;stroke:#333333;stroke-width:1.05641;stroke-linecap:butt;stroke-linejoin:miter;stroke-miterlimit:4;stroke-dasharray:none;stroke-opacity:1"
         d="m 132.77962,110.20994 h 26.54064"
         id="path14031"
         sodipodi:nodetypes="cc" />
      <path
         style="fill:none;fill-rule:evenodd;stroke:#333333;stroke-width:1.05641;stroke-linecap:butt;stroke-linejoin:miter;stroke-miterlimit:4;stroke-dasharray:none;stroke-opacity:1"
         d="m 132.77962,112.4845 h 20.98781"
         id="path14033"
         sodipodi:nodetypes="cc" />
      <path
         style="fill:none;fill-rule:evenodd;stroke:#333333;stroke-width:1.05641;stroke-linecap:butt;stroke-linejoin:miter;stroke-miterlimit:4;stroke-dasharray:none;stroke-opacity:1"
         d="m 132.77962,114.75905 h 25.03479"
         id="path14035"
         sodipodi:nodetypes="cc" />
      <path
         style="fill:none;fill-rule:evenodd;stroke:#333333;stroke-width:1.05641;stroke-linecap:butt;stroke-linejoin:miter;stroke-miterlimit:4;stroke-dasharray:none;stroke-opacity:1"
         d="m 132.77962,117.03361 h 8.47042"
         id="path14037"
         sodipodi:nodetypes="cc" />
      <path
         style="fill:none;fill-rule:evenodd;stroke:#333333;stroke-width:1.05641;stroke-linecap:butt;stroke-linejoin:miter;stroke-miterlimit:4;stroke-dasharray:none;stroke-opacity:1"
         d="m 132.77962,121.58271 h 21.17605"
         id="path14039"
         sodipodi:nodetypes="cc" />
      <path
         style="fill:none;fill-rule:evenodd;stroke:#333333;stroke-width:1.05641;stroke-linecap:butt;stroke-linejoin:miter;stroke-miterlimit:4;stroke-dasharray:none;stroke-opacity:1"
         d="m 132.77962,123.85727 h 23.52894"
         id="path14041"
         sodipodi:nodetypes="cc" />
      <path
         style="fill:none;fill-rule:evenodd;stroke:#333333;stroke-width:1.05641;stroke-linecap:butt;stroke-linejoin:miter;stroke-miterlimit:4;stroke-dasharray:none;stroke-opacity:1"
         d="M 132.77962,126.13183 H 155.3674"
         id="path14043"
         sodipodi:nodetypes="cc" />
      <path
         style="fill:none;fill-rule:evenodd;stroke:#333333;stroke-width:1.05641;stroke-linecap:butt;stroke-linejoin:miter;stroke-miterlimit:4;stroke-dasharray:none;stroke-opacity:1"
         d="m 132.77962,128.40638 h 26.54064"
         id="path14045"
         sodipodi:nodetypes="cc" />
      <path
         style="fill:none;fill-rule:evenodd;stroke:#333333;stroke-width:1.05641;stroke-linecap:butt;stroke-linejoin:miter;stroke-miterlimit:4;stroke-dasharray:none;stroke-opacity:1"
         d="m 132.77962,130.68093 h 25.41125"
         id="path14047"
         sodipodi:nodetypes="cc" />
      <path
         style="fill:none;fill-rule:evenodd;stroke:#333333;stroke-width:1.05641;stroke-linecap:butt;stroke-linejoin:miter;stroke-miterlimit:4;stroke-dasharray:none;stroke-opacity:1"
         d="m 132.77962,132.95549 h 24.28186"
         id="path14049"
         sodipodi:nodetypes="cc" />
      <path
         style="fill:none;fill-rule:evenodd;stroke:#333333;stroke-width:1.05641;stroke-linecap:butt;stroke-linejoin:miter;stroke-miterlimit:4;stroke-dasharray:none;stroke-opacity:1"
         d="M 132.77962,135.23004 H 154.1439"
         id="path14051"
         sodipodi:nodetypes="cc" />
      <path
         style="fill:none;fill-rule:evenodd;stroke:#333333;stroke-width:1.05641;stroke-linecap:butt;stroke-linejoin:miter;stroke-miterlimit:4;stroke-dasharray:none;stroke-opacity:1"
         d="m 132.77962,137.50459 h 24.09363"
         id="path14053"
         sodipodi:nodetypes="cc" />
      <text
         xml:space="preserve"
         style="font-size:4.23333px;line-height:3.70418px;font-family:'Faster One';-inkscape-font-specification:'Faster One';text-align:center;letter-spacing:0px;word-spacing:0px;text-anchor:middle;fill:url(#linearGradient28117);fill-opacity:1;stroke:none;stroke-width:0.218783px;stroke-linecap:butt;stroke-linejoin:miter;stroke-opacity:1"
         x="132.47482"
         y="101.58165"
         id="text14201"><tspan
           sodipodi:role="line"
           style="font-style:normal;font-variant:normal;font-weight:normal;font-stretch:normal;font-size:4.23333px;font-family:'JetBrains Mono';-inkscape-font-specification:'JetBrains Mono';text-align:start;text-anchor:start;fill:url(#linearGradient28117);fill-opacity:1;stroke:none;stroke-width:0.218783px"
           x="132.47482"
           y="101.58165"
           id="tspan14199">Source 2</tspan><tspan
           sodipodi:role="line"
           style="font-style:normal;font-variant:normal;font-weight:normal;font-stretch:normal;font-size:4.23333px;font-family:'JetBrains Mono';-inkscape-font-specification:'JetBrains Mono';text-align:start;text-anchor:start;fill:url(#linearGradient28117);fill-opacity:1;stroke:none;stroke-width:0.218783px"
           x="132.47482"
           y="105.59085"
           id="tspan22483">Coder 1</tspan></text>
    </g>
    <g
       id="g27270"
       transform="translate(13.17231,-59.502654)">
      <rect
         style="color:#000000;overflow:visible;fill:#fff6d5;stroke:#808080;stroke-width:0.740898;stroke-miterlimit:4;stroke-dasharray:none;stroke-dashoffset:0;stop-color:#000000"
         id="rect27236"
         width="31.110853"
         height="43.999638"
         x="130.49452"
         y="96.191437"
         rx="0.70427591"
         ry="0.70427591" />
      <path
         style="fill:none;fill-rule:evenodd;stroke:#333333;stroke-width:1.05641;stroke-linecap:butt;stroke-linejoin:miter;stroke-miterlimit:4;stroke-dasharray:none;stroke-opacity:1"
         d="M 132.77962,107.93539 H 158.3791"
         id="path27238"
         sodipodi:nodetypes="cc" />
      <path
         style="fill:none;fill-rule:evenodd;stroke:#333333;stroke-width:1.05641;stroke-linecap:butt;stroke-linejoin:miter;stroke-miterlimit:4;stroke-dasharray:none;stroke-opacity:1"
         d="m 132.77962,110.20994 h 26.54064"
         id="path27240"
         sodipodi:nodetypes="cc" />
      <path
         style="fill:none;fill-rule:evenodd;stroke:#333333;stroke-width:1.05641;stroke-linecap:butt;stroke-linejoin:miter;stroke-miterlimit:4;stroke-dasharray:none;stroke-opacity:1"
         d="m 132.77962,112.4845 h 20.98781"
         id="path27242"
         sodipodi:nodetypes="cc" />
      <path
         style="fill:none;fill-rule:evenodd;stroke:#333333;stroke-width:1.05641;stroke-linecap:butt;stroke-linejoin:miter;stroke-miterlimit:4;stroke-dasharray:none;stroke-opacity:1"
         d="m 132.77962,114.75905 h 25.03479"
         id="path27244"
         sodipodi:nodetypes="cc" />
      <path
         style="fill:none;fill-rule:evenodd;stroke:#333333;stroke-width:1.05641;stroke-linecap:butt;stroke-linejoin:miter;stroke-miterlimit:4;stroke-dasharray:none;stroke-opacity:1"
         d="m 132.77962,117.03361 h 8.47042"
         id="path27246"
         sodipodi:nodetypes="cc" />
      <path
         style="fill:none;fill-rule:evenodd;stroke:#333333;stroke-width:1.05641;stroke-linecap:butt;stroke-linejoin:miter;stroke-miterlimit:4;stroke-dasharray:none;stroke-opacity:1"
         d="m 132.77962,121.58271 h 21.17605"
         id="path27248"
         sodipodi:nodetypes="cc" />
      <path
         style="fill:none;fill-rule:evenodd;stroke:#333333;stroke-width:1.05641;stroke-linecap:butt;stroke-linejoin:miter;stroke-miterlimit:4;stroke-dasharray:none;stroke-opacity:1"
         d="m 132.77962,123.85727 h 23.52894"
         id="path27250"
         sodipodi:nodetypes="cc" />
      <path
         style="fill:none;fill-rule:evenodd;stroke:#333333;stroke-width:1.05641;stroke-linecap:butt;stroke-linejoin:miter;stroke-miterlimit:4;stroke-dasharray:none;stroke-opacity:1"
         d="M 132.77962,126.13183 H 155.3674"
         id="path27252"
         sodipodi:nodetypes="cc" />
      <path
         style="fill:none;fill-rule:evenodd;stroke:#333333;stroke-width:1.05641;stroke-linecap:butt;stroke-linejoin:miter;stroke-miterlimit:4;stroke-dasharray:none;stroke-opacity:1"
         d="m 132.77962,128.40638 h 26.54064"
         id="path27254"
         sodipodi:nodetypes="cc" />
      <path
         style="fill:none;fill-rule:evenodd;stroke:#333333;stroke-width:1.05641;stroke-linecap:butt;stroke-linejoin:miter;stroke-miterlimit:4;stroke-dasharray:none;stroke-opacity:1"
         d="m 132.77962,130.68093 h 25.41125"
         id="path27256"
         sodipodi:nodetypes="cc" />
      <path
         style="fill:none;fill-rule:evenodd;stroke:#333333;stroke-width:1.05641;stroke-linecap:butt;stroke-linejoin:miter;stroke-miterlimit:4;stroke-dasharray:none;stroke-opacity:1"
         d="m 132.77962,132.95549 h 24.28186"
         id="path27258"
         sodipodi:nodetypes="cc" />
      <path
         style="fill:none;fill-rule:evenodd;stroke:#333333;stroke-width:1.05641;stroke-linecap:butt;stroke-linejoin:miter;stroke-miterlimit:4;stroke-dasharray:none;stroke-opacity:1"
         d="M 132.77962,135.23004 H 154.1439"
         id="path27260"
         sodipodi:nodetypes="cc" />
      <path
         style="fill:none;fill-rule:evenodd;stroke:#333333;stroke-width:1.05641;stroke-linecap:butt;stroke-linejoin:miter;stroke-miterlimit:4;stroke-dasharray:none;stroke-opacity:1"
         d="m 132.77962,137.50459 h 24.09363"
         id="path27262"
         sodipodi:nodetypes="cc" />
      <text
         xml:space="preserve"
         style="font-size:4.23333px;line-height:3.70418px;font-family:'Faster One';-inkscape-font-specification:'Faster One';text-align:center;letter-spacing:0px;word-spacing:0px;text-anchor:middle;fill:url(#linearGradient28119);fill-opacity:1;stroke:none;stroke-width:0.218783px;stroke-linecap:butt;stroke-linejoin:miter;stroke-opacity:1"
         x="132.47482"
         y="101.58165"
         id="text27268"><tspan
           sodipodi:role="line"
           style="font-style:normal;font-variant:normal;font-weight:normal;font-stretch:normal;font-size:4.23333px;font-family:'JetBrains Mono';-inkscape-font-specification:'JetBrains Mono';text-align:start;text-anchor:start;fill:url(#linearGradient28119);fill-opacity:1;stroke:none;stroke-width:0.218783px"
           x="132.47482"
           y="101.58165"
           id="tspan27264">Source 2</tspan><tspan
           sodipodi:role="line"
           style="font-style:normal;font-variant:normal;font-weight:normal;font-stretch:normal;font-size:4.23333px;font-family:'JetBrains Mono';-inkscape-font-specification:'JetBrains Mono';text-align:start;text-anchor:start;fill:url(#linearGradient28119);fill-opacity:1;stroke:none;stroke-width:0.218783px"
           x="132.47482"
           y="105.59085"
           id="tspan27266">Coder 2</tspan></text>
    </g>
    <g
       id="g27308"
       transform="translate(18.407119,-48.626141)">
      <rect
         style="color:#000000;overflow:visible;fill:#fff6d5;stroke:#808080;stroke-width:0.740898;stroke-miterlimit:4;stroke-dasharray:none;stroke-dashoffset:0;stop-color:#000000"
         id="rect27274"
         width="31.110853"
         height="43.999638"
         x="130.49452"
         y="96.191437"
         rx="0.70427591"
         ry="0.70427591" />
      <path
         style="fill:none;fill-rule:evenodd;stroke:#333333;stroke-width:1.05641;stroke-linecap:butt;stroke-linejoin:miter;stroke-miterlimit:4;stroke-dasharray:none;stroke-opacity:1"
         d="M 132.77962,107.93539 H 158.3791"
         id="path27276"
         sodipodi:nodetypes="cc" />
      <path
         style="fill:none;fill-rule:evenodd;stroke:#333333;stroke-width:1.05641;stroke-linecap:butt;stroke-linejoin:miter;stroke-miterlimit:4;stroke-dasharray:none;stroke-opacity:1"
         d="m 132.77962,110.20994 h 26.54064"
         id="path27278"
         sodipodi:nodetypes="cc" />
      <path
         style="fill:none;fill-rule:evenodd;stroke:#333333;stroke-width:1.05641;stroke-linecap:butt;stroke-linejoin:miter;stroke-miterlimit:4;stroke-dasharray:none;stroke-opacity:1"
         d="m 132.77962,112.4845 h 20.98781"
         id="path27280"
         sodipodi:nodetypes="cc" />
      <path
         style="fill:none;fill-rule:evenodd;stroke:#333333;stroke-width:1.05641;stroke-linecap:butt;stroke-linejoin:miter;stroke-miterlimit:4;stroke-dasharray:none;stroke-opacity:1"
         d="m 132.77962,114.75905 h 25.03479"
         id="path27282"
         sodipodi:nodetypes="cc" />
      <path
         style="fill:none;fill-rule:evenodd;stroke:#333333;stroke-width:1.05641;stroke-linecap:butt;stroke-linejoin:miter;stroke-miterlimit:4;stroke-dasharray:none;stroke-opacity:1"
         d="m 132.77962,117.03361 h 8.47042"
         id="path27284"
         sodipodi:nodetypes="cc" />
      <path
         style="fill:none;fill-rule:evenodd;stroke:#333333;stroke-width:1.05641;stroke-linecap:butt;stroke-linejoin:miter;stroke-miterlimit:4;stroke-dasharray:none;stroke-opacity:1"
         d="m 132.77962,121.58271 h 21.17605"
         id="path27286"
         sodipodi:nodetypes="cc" />
      <path
         style="fill:none;fill-rule:evenodd;stroke:#333333;stroke-width:1.05641;stroke-linecap:butt;stroke-linejoin:miter;stroke-miterlimit:4;stroke-dasharray:none;stroke-opacity:1"
         d="m 132.77962,123.85727 h 23.52894"
         id="path27288"
         sodipodi:nodetypes="cc" />
      <path
         style="fill:none;fill-rule:evenodd;stroke:#333333;stroke-width:1.05641;stroke-linecap:butt;stroke-linejoin:miter;stroke-miterlimit:4;stroke-dasharray:none;stroke-opacity:1"
         d="M 132.77962,126.13183 H 155.3674"
         id="path27290"
         sodipodi:nodetypes="cc" />
      <path
         style="fill:none;fill-rule:evenodd;stroke:#333333;stroke-width:1.05641;stroke-linecap:butt;stroke-linejoin:miter;stroke-miterlimit:4;stroke-dasharray:none;stroke-opacity:1"
         d="m 132.77962,128.40638 h 26.54064"
         id="path27292"
         sodipodi:nodetypes="cc" />
      <path
         style="fill:none;fill-rule:evenodd;stroke:#333333;stroke-width:1.05641;stroke-linecap:butt;stroke-linejoin:miter;stroke-miterlimit:4;stroke-dasharray:none;stroke-opacity:1"
         d="m 132.77962,130.68093 h 25.41125"
         id="path27294"
         sodipodi:nodetypes="cc" />
      <path
         style="fill:none;fill-rule:evenodd;stroke:#333333;stroke-width:1.05641;stroke-linecap:butt;stroke-linejoin:miter;stroke-miterlimit:4;stroke-dasharray:none;stroke-opacity:1"
         d="m 132.77962,132.95549 h 24.28186"
         id="path27296"
         sodipodi:nodetypes="cc" />
      <path
         style="fill:none;fill-rule:evenodd;stroke:#333333;stroke-width:1.05641;stroke-linecap:butt;stroke-linejoin:miter;stroke-miterlimit:4;stroke-dasharray:none;stroke-opacity:1"
         d="M 132.77962,135.23004 H 154.1439"
         id="path27298"
         sodipodi:nodetypes="cc" />
      <path
         style="fill:none;fill-rule:evenodd;stroke:#333333;stroke-width:1.05641;stroke-linecap:butt;stroke-linejoin:miter;stroke-miterlimit:4;stroke-dasharray:none;stroke-opacity:1"
         d="m 132.77962,137.50459 h 24.09363"
         id="path27300"
         sodipodi:nodetypes="cc" />
      <text
         xml:space="preserve"
         style="font-size:4.23333px;line-height:3.70418px;font-family:'Faster One';-inkscape-font-specification:'Faster One';text-align:center;letter-spacing:0px;word-spacing:0px;text-anchor:middle;fill:url(#linearGradient28121);fill-opacity:1;stroke:none;stroke-width:0.218783px;stroke-linecap:butt;stroke-linejoin:miter;stroke-opacity:1"
         x="132.47482"
         y="101.58165"
         id="text27306"><tspan
           sodipodi:role="line"
           style="font-style:normal;font-variant:normal;font-weight:normal;font-stretch:normal;font-size:4.23333px;font-family:'JetBrains Mono';-inkscape-font-specification:'JetBrains Mono';text-align:start;text-anchor:start;fill:url(#linearGradient28121);fill-opacity:1;stroke:none;stroke-width:0.218783px"
           x="132.47482"
           y="101.58165"
           id="tspan27302">Source 2</tspan><tspan
           sodipodi:role="line"
           style="font-style:normal;font-variant:normal;font-weight:normal;font-stretch:normal;font-size:4.23333px;font-family:'JetBrains Mono';-inkscape-font-specification:'JetBrains Mono';text-align:start;text-anchor:start;fill:url(#linearGradient28121);fill-opacity:1;stroke:none;stroke-width:0.218783px"
           x="132.47482"
           y="105.59085"
           id="tspan27304">Coder 3</tspan></text>
    </g>
    <g
       id="g27348"
       transform="translate(23.641926,-37.749624)">
      <rect
         style="color:#000000;overflow:visible;fill:#fff6d5;stroke:#808080;stroke-width:0.740898;stroke-miterlimit:4;stroke-dasharray:none;stroke-dashoffset:0;stop-color:#000000"
         id="rect27314"
         width="31.110853"
         height="43.999638"
         x="130.49452"
         y="96.191437"
         rx="0.70427591"
         ry="0.70427591" />
      <path
         style="fill:none;fill-rule:evenodd;stroke:#333333;stroke-width:1.05641;stroke-linecap:butt;stroke-linejoin:miter;stroke-miterlimit:4;stroke-dasharray:none;stroke-opacity:1"
         d="M 132.77962,107.93539 H 158.3791"
         id="path27316"
         sodipodi:nodetypes="cc" />
      <path
         style="fill:none;fill-rule:evenodd;stroke:#333333;stroke-width:1.05641;stroke-linecap:butt;stroke-linejoin:miter;stroke-miterlimit:4;stroke-dasharray:none;stroke-opacity:1"
         d="m 132.77962,110.20994 h 26.54064"
         id="path27318"
         sodipodi:nodetypes="cc" />
      <path
         style="fill:none;fill-rule:evenodd;stroke:#333333;stroke-width:1.05641;stroke-linecap:butt;stroke-linejoin:miter;stroke-miterlimit:4;stroke-dasharray:none;stroke-opacity:1"
         d="m 132.77962,112.4845 h 20.98781"
         id="path27320"
         sodipodi:nodetypes="cc" />
      <path
         style="fill:none;fill-rule:evenodd;stroke:#333333;stroke-width:1.05641;stroke-linecap:butt;stroke-linejoin:miter;stroke-miterlimit:4;stroke-dasharray:none;stroke-opacity:1"
         d="m 132.77962,114.75905 h 25.03479"
         id="path27322"
         sodipodi:nodetypes="cc" />
      <path
         style="fill:none;fill-rule:evenodd;stroke:#333333;stroke-width:1.05641;stroke-linecap:butt;stroke-linejoin:miter;stroke-miterlimit:4;stroke-dasharray:none;stroke-opacity:1"
         d="m 132.77962,117.03361 h 8.47042"
         id="path27324"
         sodipodi:nodetypes="cc" />
      <path
         style="fill:none;fill-rule:evenodd;stroke:#333333;stroke-width:1.05641;stroke-linecap:butt;stroke-linejoin:miter;stroke-miterlimit:4;stroke-dasharray:none;stroke-opacity:1"
         d="m 132.77962,121.58271 h 21.17605"
         id="path27326"
         sodipodi:nodetypes="cc" />
      <path
         style="fill:none;fill-rule:evenodd;stroke:#333333;stroke-width:1.05641;stroke-linecap:butt;stroke-linejoin:miter;stroke-miterlimit:4;stroke-dasharray:none;stroke-opacity:1"
         d="m 132.77962,123.85727 h 23.52894"
         id="path27328"
         sodipodi:nodetypes="cc" />
      <path
         style="fill:none;fill-rule:evenodd;stroke:#333333;stroke-width:1.05641;stroke-linecap:butt;stroke-linejoin:miter;stroke-miterlimit:4;stroke-dasharray:none;stroke-opacity:1"
         d="M 132.77962,126.13183 H 155.3674"
         id="path27330"
         sodipodi:nodetypes="cc" />
      <path
         style="fill:none;fill-rule:evenodd;stroke:#333333;stroke-width:1.05641;stroke-linecap:butt;stroke-linejoin:miter;stroke-miterlimit:4;stroke-dasharray:none;stroke-opacity:1"
         d="m 132.77962,128.40638 h 26.54064"
         id="path27332"
         sodipodi:nodetypes="cc" />
      <path
         style="fill:none;fill-rule:evenodd;stroke:#333333;stroke-width:1.05641;stroke-linecap:butt;stroke-linejoin:miter;stroke-miterlimit:4;stroke-dasharray:none;stroke-opacity:1"
         d="m 132.77962,130.68093 h 25.41125"
         id="path27334"
         sodipodi:nodetypes="cc" />
      <path
         style="fill:none;fill-rule:evenodd;stroke:#333333;stroke-width:1.05641;stroke-linecap:butt;stroke-linejoin:miter;stroke-miterlimit:4;stroke-dasharray:none;stroke-opacity:1"
         d="m 132.77962,132.95549 h 24.28186"
         id="path27336"
         sodipodi:nodetypes="cc" />
      <path
         style="fill:none;fill-rule:evenodd;stroke:#333333;stroke-width:1.05641;stroke-linecap:butt;stroke-linejoin:miter;stroke-miterlimit:4;stroke-dasharray:none;stroke-opacity:1"
         d="M 132.77962,135.23004 H 154.1439"
         id="path27338"
         sodipodi:nodetypes="cc" />
      <path
         style="fill:none;fill-rule:evenodd;stroke:#333333;stroke-width:1.05641;stroke-linecap:butt;stroke-linejoin:miter;stroke-miterlimit:4;stroke-dasharray:none;stroke-opacity:1"
         d="m 132.77962,137.50459 h 24.09363"
         id="path27340"
         sodipodi:nodetypes="cc" />
      <text
         xml:space="preserve"
         style="font-size:4.23333px;line-height:3.70418px;font-family:'Faster One';-inkscape-font-specification:'Faster One';text-align:center;letter-spacing:0px;word-spacing:0px;text-anchor:middle;fill:url(#linearGradient28123);fill-opacity:1;stroke:none;stroke-width:0.218783px;stroke-linecap:butt;stroke-linejoin:miter;stroke-opacity:1"
         x="132.47482"
         y="101.58165"
         id="text27346"><tspan
           sodipodi:role="line"
           style="font-style:normal;font-variant:normal;font-weight:normal;font-stretch:normal;font-size:4.23333px;font-family:'JetBrains Mono';-inkscape-font-specification:'JetBrains Mono';text-align:start;text-anchor:start;fill:url(#linearGradient28123);fill-opacity:1;stroke:none;stroke-width:0.218783px"
           x="132.47482"
           y="101.58165"
           id="tspan27342">Source 2</tspan><tspan
           sodipodi:role="line"
           style="font-style:normal;font-variant:normal;font-weight:normal;font-stretch:normal;font-size:4.23333px;font-family:'JetBrains Mono';-inkscape-font-specification:'JetBrains Mono';text-align:start;text-anchor:start;fill:url(#linearGradient28123);fill-opacity:1;stroke:none;stroke-width:0.218783px"
           x="132.47482"
           y="105.59085"
           id="tspan27344">Merged</tspan></text>
    </g>
  </g>
</svg>
